Project 1: Exploratory Data Analysis
…
joined_data %>% group_by(state) %>% mutate(thefts_per_urbanpop = thefts/UrbanPop) %>% 
    summarize(mean_murder = mean(Murder, na.rm = T), sd_murder = sd(Murder, 
        na.rm = T), n = n(), se_murder = sd_murder/sqrt(n), mean_rape = mean(Rape, 
        na.rm = T), sd_rape = sd(Rape, na.rm = T), se_rape = sd_rape/sqrt(n), 
        mean_assault = mean(Assault, na.rm = T), sd_assault = sd(Assault, 
            na.rm = T), se_assault = sd_assault/sqrt(n), total_thefts = sum(thefts), 
        n_cars = n_distinct(make_model), min_model_year = min(model_year), 
        max_model_year = max(model_year), mean_car_thefts = mean(thefts, 
            na.rm = T), var_thefts = var(thefts_per_urbanpop))

## # A tibble: 51 x 17
##    state mean_murder sd_murder     n se_murder mean_rape sd_rape se_rape
##    <chr>       <dbl>     <dbl> <int>     <dbl>     <dbl>   <dbl>   <dbl>
##  1 Alab…        13.2         0    10         0      21.2       0       0
##  2 Alas…        10           0    10         0      44.5       0       0
##  3 Ariz…         8.1         0    10         0      31         0       0
##  4 Arka…         8.8         0    10         0      19.5       0       0
##  5 Cali…         9           0    10         0      40.6       0       0
##  6 Colo…         7.9         0    10         0      38.7       0       0
##  7 Conn…         3.3         0    10         0      11.1       0       0
##  8 Dela…         5.9         0    10         0      15.8       0       0
##  9 Dist…       NaN          NA    10        NA     NaN        NA      NA
## 10 Flor…        15.4         0    10         0      31.9       0       0
## # … with 41 more rows, and 9 more variables: mean_assault <dbl>,
## #   sd_assault <dbl>, se_assault <dbl>, total_thefts <dbl>, n_cars <int>,
## #   min_model_year <dbl>, max_model_year <dbl>, mean_car_thefts <dbl>,
## #   var_thefts <dbl>

joined_data %>% group_by(state, make_model) %>% summarize(mean_car_thefts = mean(thefts, 
    na.rm = T)) %>% na.omit() %>% pivot_wider(names_from = state, 
    values_from = mean_car_thefts)

## # A tibble: 48 x 52
##    make_model Alabama Alaska Arizona Arkansas California Colorado Connecticut
##    <chr>        <dbl>  <dbl>   <dbl>    <dbl>      <dbl>    <dbl>       <dbl>
##  1 Chevrolet…     191     NA      NA       76         NA       NA          NA
##  2 Chevrolet…     499    147     850      402       6048      450          NA
##  3 Dodge Pic…     138     44     428      127         NA      308          NA
##  4 Ford Expl…     119     31      NA       NA         NA       NA          NA
##  5 Ford Must…     122     NA      NA       NA         NA       NA          NA
##  6 Ford Pick…     357     95     772      252       4504      595          NA
##  7 GMC Picku…     152     58     246      174         NA       NA          NA
##  8 Honda Acc…     180     46    1072      122      28345     1167         534
##  9 Nissan Al…     191     NA     269       89       2281       NA         143
## 10 Toyota Ca…     205     NA     210       82       5345      203         131
## # … with 38 more rows, and 44 more variables: Delaware <dbl>, `District Of
## #   Columbia` <dbl>, Florida <dbl>, Georgia <dbl>, Hawaii <dbl>, Idaho <dbl>,
## #   Illinois <dbl>, Indiana <dbl>, Iowa <dbl>, Kansas <dbl>, Kentucky <dbl>,
## #   Louisiana <dbl>, Maine <dbl>, Maryland <dbl>, Massachusetts <dbl>,
## #   Michigan <dbl>, Minnesota <dbl>, Mississippi <dbl>, Missouri <dbl>,
## #   Montana <dbl>, Nebraska <dbl>, Nevada <dbl>, `New Hampshire` <dbl>, `New
## #   Jersey` <dbl>, `New Mexico` <dbl>, `New York` <dbl>, `North
## #   Carolina` <dbl>, `North Dakota` <dbl>, Ohio <dbl>, Oklahoma <dbl>,
## #   Oregon <dbl>, Pennsylvania <dbl>, `Rhode Island` <dbl>, `South
…
